 {
   "/job/*": {
     "target": "http://localhost:5000/job",
     "secure": false,
     "logLevel": "debug",
     "changeOrigin": true,
     "pathRewrite": { "^/job": "" }
   },
   "/candidate/*": {
    "target": "http://localhost:5000/candidate",
    "secure": false,
    "logLevel": "debug"
  }   
 }